[
  {
    "name": "sign_in",
    "path": "POST /auth/signin",
    "handler": "SignInController.SignIn",
    "actif": true
  },
  {
    "name": "sign_up",
    "path": "POST /auth/signup",
    "handler": "SignUpController.SignUp",
    "actif": true
  }
]